{
  "interface": "https://schema.skao.int/ska-tmc-configure/4.1",
  "transaction_id": "",
  "pointing": {
      "target": {
          "reference_frame": "ICRS",
          "target_name": "Polaris Australis",
          "ra": "21:08:47.92",
          "dec": "-88:57:22.9",
          "ca_offset_arcsec": 0.0,
          "ie_offset_arcsec": 0.0
      },
      "correction": "UPDATE"
  },
  "dish": {
      "receiver_band": "1"
  },
  "csp": {
    "interface": "https://schema.skao.int/ska-csp-configurescan/4.1",
    "common": {
        "config_id": "sbi-mvp01-20200325-00001-science_A",
        "frequency_band": "2",
        "eb_id": "eb-m001-20230712-56789"
    },
    "pst": {},
    "transaction_id": "txn-....-00001",
    "midcbf": {
        "correlation": {
            "processing_regions": [{
                "fsp_ids": [1],
                "start_freq" : 950000000,
                "channel_width" : 13440,
                "channel_count" : 40,
                "sdp_start_channel_id": 0,
                "integration_factor": 1
            }]
        }
    }
},
  "sdp": {
      "interface": "https://schema.skao.int/ska-sdp-configure/0.3",
      "scan_type": "zzzzzzz_Z"
  },
  "tmc": {
      "scan_duration": 10.0,
      "partial_configuration": false
  }
}